ESA_talk
…
liz_tidy$julian <- liz_tidy$date
liz_tidy$julian <- ymd(liz_tidy$date)

#liz_tidy$julian <- as.Date("%m/%d/%y", format = "%m/%d/%Y")

liz_tidy$julian <- format(liz_tidy$julian, "%j")

liz_tidy$julian <- as.numeric(liz_tidy$julian)

liz_tidy$week <- round(liz_tidy$julian/7)

liz_tidy

## # A tibble: 592 x 11
##    reserve round date       liz_num count lifestage region location month julian
##    <fct>   <fct> <date>       <dbl> <dbl> <chr>     <fct>  <chr>    <fct>  <dbl>
##  1 Sedgwi 2     2021-03-21       1     0 larval    south inland   <NA>      80
##  2 Sedgwi 2     2021-03-21       1     3 nymphal   south inland   <NA>      80
##  3 Sedgwi 2     2021-03-21       2    16 larval    south inland   <NA>      80
##  4 Sedgwi 2     2021-03-21       2     4 nymphal   south inland   <NA>      80
##  5 Sedgwi 2     2021-03-21       3     1 larval    south inland   <NA>      80
##  6 Sedgwi 2     2021-03-21       3     1 nymphal   south inland   <NA>      80
##  7 Sedgwi 2     2021-03-21       4     3 larval    south inland   <NA>      80
##  8 Sedgwi 2     2021-03-21       4     3 nymphal   south inland   <NA>      80
##  9 Sedgwi 2     2021-03-21       5     0 larval    south inland   <NA>      80
## 10 Sedgwi 2     2021-03-21       5     8 nymphal   south inland   <NA>      80
## #  with 582 more rows, and 1 more variable: week <dbl>
…
